original,revised,codename,source
Applications (2012-03-04).dmg,RestoreTools2_9B3176j_Applications.dmg.7z,?,source K
RestoreTools3_10A523.pkg,RestoreTools2_10A523.pkg.7z,Sundance,http://elenco.leoalfre.altervista.org/trucchiphone/altro/app/restoretools/pkg/RestoreTools.pkg
RestoreTools.pkg,RestoreTools2_10B141.pkg.7z,Brighton,http://www.eobnet.co.uk/filestore/applestuff/appleinternal/RestoreTools.pkg
RestoreTools3_12B361.pkg,RestoreTools3_12B361.pkg.7z,OkemoTaos,friend B
RestoreTools.pkg,RestoreTools3_12S35070g.pkg.7z,OkemoSky,m7.dmg
RestoreTools3.pkg,RestoreTools3_13A165.pkg.7z,Monarch,http://www.eobnet.co.uk/filestore/applestuff/appleinternal/RestoreTools3.pkg
56530-2b252-frisco_13f40_homediagnostic_058-37537-041.dmg.7z,HomeDiagnostic_13F40.dmg,Frisco,friend I
RestoreTools3_13F72.pkg,RestoreTools3_13F72.pkg.7z,Frisco,?
RestoreTools.pkg,RestoreTools3_13S96610d.pkg.7z,Bahar,IOS9-201-M7.dmg
058-21705-211.dmg/WhiteTail14A171.dmg,HomeDiagnostic_14A171.dmg.7z,WhiteTail,georgelucian on osx86.net - https://s3-eu-west-1.amazonaws.com/osx86.downloads/monthly_2018_11/WhiteTail14A171_dmg.a6e5f198d82b6d3338d11115f6c374f0
RestoreTools3_14A83432a.pkg,RestoreTools3_14A83432a.pkg.7z,WhitetailSajo,?
Butler14B70HomeDiagnostic.zip/bfe46-butler_14b70_homediagnostic_058-52418-076.dmg,HomeDiagnostic_14B70.dmg.7z,Butler,friend Z
RestoreTools.pkg,RestoreTools3_14S281a.pkg.7z,Daytona,Watch3-201-M7.dmg
RestoreTools.pkg,RestoreTools3_14S32871w.pkg.7z,DaytonaSky,Watch3-201-M8.dmg
RestoreTools.pkg,RestoreTools3_14V224.pkg.7z,Electric,Watch3-2-201-M8.dmg
15A278B_060-12213.pkg,HomeDiagnostic_15A278b.pkg.7z,Tigris,@WhiteKeyD
HomeDiagnostic.pkg,HomeDiagnostic_17A400.pkg.7z,Yukon,source K